^D:\ROMEN\HVA\JAAR 3\GAME TECHNOLOGY\KNIGHT'S TOUR\KNIGHTS TOUR\DEBUG\SOURCE.OBJ
/OUT:"D:\ROMEN\HVA\JAAR 3\GAME TECHNOLOGY\KNIGHT'S TOUR\KNIGHTS TOUR\DEBUG\KNIGHTS TOUR.EXE" /INCREMENTAL /NOLOGO KERNEL32.LIB USER32.LIB GDI32.LIB WINSPOOL.LIB COMDLG32.LIB ADVAPI32.LIB SHELL32.LIB OLE32.LIB OLEAUT32.LIB UUID.LIB ODBC32.LIB ODBCCP32.LIB /MANIFEST /MANIFESTUAC:"level='asInvoker' uiAccess='false'" /manifest:embed /DEBUG:FASTLINK /PDB:"D:\ROMEN\HVA\JAAR 3\GAME TECHNOLOGY\KNIGHT'S TOUR\KNIGHTS TOUR\DEBUG\KNIGHTS TOUR.PDB" /TLBID:1 /DYNAMICBASE /NXCOMPAT /IMPLIB:"D:\ROMEN\HVA\JAAR 3\GAME TECHNOLOGY\KNIGHT'S TOUR\KNIGHTS TOUR\DEBUG\KNIGHTS TOUR.LIB" /MACHINE:X86 DEBUG\SOURCE.OBJ
^D:\ROMEN\HVA\JAAR 3\PROJECT GAME TECHNOLOGY\ASSIGNMENTS\KNIGHTSTOUR\KNIGHTS TOUR\DEBUG\SOURCE.OBJ
/OUT:"D:\ROMEN\HVA\JAAR 3\PROJECT GAME TECHNOLOGY\ASSIGNMENTS\KNIGHTSTOUR\KNIGHTS TOUR\DEBUG\KNIGHTS TOUR.EXE" /INCREMENTAL /NOLOGO KERNEL32.LIB USER32.LIB GDI32.LIB WINSPOOL.LIB COMDLG32.LIB ADVAPI32.LIB SHELL32.LIB OLE32.LIB OLEAUT32.LIB UUID.LIB ODBC32.LIB ODBCCP32.LIB /MANIFEST /MANIFESTUAC:"level='asInvoker' uiAccess='false'" /manifest:embed /DEBUG:FASTLINK /PDB:"D:\ROMEN\HVA\JAAR 3\PROJECT GAME TECHNOLOGY\ASSIGNMENTS\KNIGHTSTOUR\KNIGHTS TOUR\DEBUG\KNIGHTS TOUR.PDB" /TLBID:1 /DYNAMICBASE /NXCOMPAT /IMPLIB:"D:\ROMEN\HVA\JAAR 3\PROJECT GAME TECHNOLOGY\ASSIGNMENTS\KNIGHTSTOUR\KNIGHTS TOUR\DEBUG\KNIGHTS TOUR.LIB" /MACHINE:X86 DEBUG\SOURCE.OBJ
