^D:\ROMEN\HVA\JAAR 3\PROJECT GAME TECHNOLOGY\ASSIGNMENTS\KNIGHTSTOUR\KNIGHTS TOUR\DEBUG\SOURCE.OBJ
D:\ROMEN\HVA\JAAR 3\PROJECT GAME TECHNOLOGY\ASSIGNMENTS\KNIGHTSTOUR\KNIGHTS TOUR\DEBUG\KNIGHTS TOUR.ILK
D:\ROMEN\HVA\JAAR 3\PROJECT GAME TECHNOLOGY\ASSIGNMENTS\KNIGHTSTOUR\KNIGHTS TOUR\DEBUG\KNIGHTS TOUR.EXE
D:\ROMEN\HVA\JAAR 3\PROJECT GAME TECHNOLOGY\ASSIGNMENTS\KNIGHTSTOUR\KNIGHTS TOUR\DEBUG\KNIGHTS TOUR.PDB
